<?xml version="1.0" encoding="UTF-8"?>
<svg id="Layer_1" data-name="Layer 1" xmlns="http://www.w3.org/2000/svg" viewBox="0 0 1366 354">
    <path
        d="m1366,78.78v168.44c-83.76,41.01-226.94,68.03-389.5,68.03-2.85,0-5.7-.01-8.54-.03-87.33-.51-174.59,5.69-260.76,19.87-73.55,12.09-156.68,18.91-244.7,18.91-195.4,0-366.71-33.58-462.5-83.99V83.99C95.79,33.58,267.1,0,462.5,0c58.6,0,115.04,3.02,167.92,8.61,84.83,8.97,170.25,10.46,255.38,5,29.34-1.87,59.67-2.86,90.7-2.86,162.56,0,305.74,27.02,389.5,68.03Z" />
    <path
        d="m1366,78.78v168.44c-83.76,41.01-226.94,68.03-389.5,68.03-2.85,0-5.7-.01-8.54-.03-87.33-.51-174.59,5.69-260.76,19.87-73.55,12.09-156.68,18.91-244.7,18.91-195.4,0-366.71-33.58-462.5-83.99V83.99C95.79,33.58,267.1,0,462.5,0c58.6,0,115.04,3.02,167.92,8.61,84.83,8.97,170.25,10.46,255.38,5,29.34-1.87,59.67-2.86,90.7-2.86,162.56,0,305.74,27.02,389.5,68.03Z" />
</svg>